[
{
"ID": "1",
"INDUSTRY": "Accounting"
},
{
"ID": "2",
"INDUSTRY": "Airlines Aviation"
},
{
"ID": "3",
"INDUSTRY": "Alternative Dispute Resolution"
},
{
"ID": "4",
"INDUSTRY": "Alternative Medicine"
},
{
"ID": "5",
"INDUSTRY": "Animation"
},
{
"ID": "6",
"INDUSTRY": "Apparel and Fashion"
},
{
"ID": "7",
"INDUSTRY": "Architecture and Planning"
},
{
"ID": "8",
"INDUSTRY": "Arts and Crafts"
},
{
"ID": "9",
"INDUSTRY": "Automotive"
},
{
"ID": "10",
"INDUSTRY": "Aviation and Aerospace"
},
{
"ID": "11",
"INDUSTRY": "Banking"
},
{
"ID": "12",
"INDUSTRY": "Biotechnology"
},
{
"ID": "13",
"INDUSTRY": "Broadcast Media"
},
{
"ID": "14",
"INDUSTRY": "Building Materials"
},
{
"ID": "15",
"INDUSTRY": "Business Supplies and Equipment"
},
{
"ID": "16",
"INDUSTRY": "Capital Markets"
},
{
"ID": "17",
"INDUSTRY": "Chemicals"
},
{
"ID": "18",
"INDUSTRY": "Civic and Social Organization"
},
{
"ID": "19",
"INDUSTRY": "Civil Engineering"
},
{
"ID": "20",
"INDUSTRY": "Commercial Real Estate"
},
{
"ID": "21",
"INDUSTRY": "Computer and Network Security"
},
{
"ID": "22",
"INDUSTRY": "Computer Games"
},
{
"ID": "23",
"INDUSTRY": "Computer Hardware"
},
{
"ID": "24",
"INDUSTRY": "Computer Networking"
},
{
"ID": "25",
"INDUSTRY": "Computer Software"
},
{
"ID": "26",
"INDUSTRY": "Construction"
},
{
"ID": "27",
"INDUSTRY": "Consumer Electronics"
},
{
"ID": "28",
"INDUSTRY": "Consumer Goods"
},
{
"ID": "29",
"INDUSTRY": "Consumer Services"
},
{
"ID": "30",
"INDUSTRY": "Cosmetics"
},
{
"ID": "31",
"INDUSTRY": "Dairy"
},
{
"ID": "32",
"INDUSTRY": "Defense and Space"
},
{
"ID": "33",
"INDUSTRY": "Design"
},
{
"ID": "34",
"INDUSTRY": "Education Management"
},
{
"ID": "35",
"INDUSTRY": "E-learning"
},
{
"ID": "36",
"INDUSTRY": "Electrical and Electronic Manufacturing"
},
{
"ID": "37",
"INDUSTRY": "Entertainment"
},
{
"ID": "38",
"INDUSTRY": "Environmental Services"
},
{
"ID": "39",
"INDUSTRY": "Events Services"
},
{
"ID": "40",
"INDUSTRY": "Executive Office"
},
{
"ID": "41",
"INDUSTRY": "Facilities Services"
},
{
"ID": "42",
"INDUSTRY": "Farming"
},
{
"ID": "43",
"INDUSTRY": "Financial Services"
},
{
"ID": "44",
"INDUSTRY": "Fine Art"
},
{
"ID": "45",
"INDUSTRY": "Fishery"
},
{
"ID": "46",
"INDUSTRY": "Food and Beverages"
},
{
"ID": "47",
"INDUSTRY": "Food Production"
},
{
"ID": "48",
"INDUSTRY": "Fundraising"
},
{
"ID": "49",
"INDUSTRY": "Furniture"
},
{
"ID": "50",
"INDUSTRY": "Gambling and Casinos"
},
{
"ID": "51",
"INDUSTRY": "Glass"
},
{
"ID": "52",
"INDUSTRY": "Government Administration"
},
{
"ID": "53",
"INDUSTRY": "Government Relations"
},
{
"ID": "54",
"INDUSTRY": "Graphic Design"
},
{
"ID": "55",
"INDUSTRY": "Health"
},
{
"ID": "56",
"INDUSTRY": "Higher Education"
},
{
"ID": "57",
"INDUSTRY": "Hospital and Health Care"
},
{
"ID": "58",
"INDUSTRY": "Hospitality"
},
{
"ID": "59",
"INDUSTRY": "Human Resources"
},
{
"ID": "60",
"INDUSTRY": "Import and Export"
},
{
"ID": "61",
"INDUSTRY": "Individual and Family Services"
},
{
"ID": "62",
"INDUSTRY": "Industrial Automation"
},
{
"ID": "63",
"INDUSTRY": "Information Services"
},
{
"ID": "64",
"INDUSTRY": "Information Technology and Services"
},
{
"ID": "65",
"INDUSTRY": "Insurance"
},
{
"ID": "66",
"INDUSTRY": "International Affairs"
},
{
"ID": "67",
"INDUSTRY": "International Trade and Development"
},
{
"ID": "68",
"INDUSTRY": "Internet"
},
{
"ID": "69",
"INDUSTRY": "Investment Banking Venture"
},
{
"ID": "70",
"INDUSTRY": "Investment Management"
},
{
"ID": "71",
"INDUSTRY": "Judiciary"
},
{
"ID": "72",
"INDUSTRY": "Law Enforcement"
},
{
"ID": "73",
"INDUSTRY": "Law Practice"
},
{
"ID": "74",
"INDUSTRY": "Legal Services"
},
{
"ID": "75",
"INDUSTRY": "Legislative Office"
},
{
"ID": "76",
"INDUSTRY": "Leisure and Travel"
},
{
"ID": "77",
"INDUSTRY": "Libraries"
},
{
"ID": "78",
"INDUSTRY": "Logistics and Supply Chain"
},
{
"ID": "79",
"INDUSTRY": "Luxury Goods and Jewelry"
},
{
"ID": "80",
"INDUSTRY": "Machinery"
},
{
"ID": "81",
"INDUSTRY": "Management Consulting"
},
{
"ID": "82",
"INDUSTRY": "Maritime"
},
{
"ID": "83",
"INDUSTRY": "Marketing and Advertising"
},
{
"ID": "84",
"INDUSTRY": "Market Research"
},
{
"ID": "85",
"INDUSTRY": "Mechanical or Industrial Engineering"
},
{
"ID": "86",
"INDUSTRY": "Media Production"
},
{
"ID": "87",
"INDUSTRY": "Medical Device"
},
{
"ID": "88",
"INDUSTRY": "Medical Practice"
},
{
"ID": "89",
"INDUSTRY": "Mental Health Care"
},
{
"ID": "90",
"INDUSTRY": "Military"
},
{
"ID": "91",
"INDUSTRY": "Mining and Metals"
},
{
"ID": "92",
"INDUSTRY": "Motion Pictures and Film"
},
{
"ID": "93",
"INDUSTRY": "Museums and Institutions"
},
{
"ID": "94",
"INDUSTRY": "Music"
},
{
"ID": "95",
"INDUSTRY": "Nanotechnology"
},
{
"ID": "96",
"INDUSTRY": "Newspapers"
},
{
"ID": "97",
"INDUSTRY": "Nonprofit Organization Management"
},
{
"ID": "98",
"INDUSTRY": "Oil and Energy"
},
{
"ID": "99",
"INDUSTRY": "Online Publishing"
},
{
"ID": "100",
"INDUSTRY": "Outsourcing Offshoring"
},
{
"ID": "101",
"INDUSTRY": "Package Freight Delivery"
},
{
"ID": "102",
"INDUSTRY": "Packaging and Containers"
},
{
"ID": "103",
"INDUSTRY": "Paper and Forest Products"
},
{
"ID": "104",
"INDUSTRY": "Performing Arts"
},
{
"ID": "105",
"INDUSTRY": "Pharmaceuticals"
},
{
"ID": "106",
"INDUSTRY": "Philanthropy"
},
{
"ID": "107",
"INDUSTRY": "Photography"
},
{
"ID": "108",
"INDUSTRY": "Plastics"
},
{
"ID": "109",
"INDUSTRY": "Political Organization"
},
{
"ID": "110",
"INDUSTRY": "Primary Secondary"
},
{
"ID": "111",
"INDUSTRY": "Printing"
},
{
"ID": "112",
"INDUSTRY": "Professional Training"
},
{
"ID": "113",
"INDUSTRY": "Program Development"
},
{
"ID": "114",
"INDUSTRY": "Public Policy"
},
{
"ID": "115",
"INDUSTRY": "Public Relations"
},
{
"ID": "116",
"INDUSTRY": "Public Safety"
},
{
"ID": "117",
"INDUSTRY": "Publishing"
},
{
"ID": "118",
"INDUSTRY": "Railroad Manufacture"
},
{
"ID": "119",
"INDUSTRY": "Ranching"
},
{
"ID": "120",
"INDUSTRY": "Real Estate"
},
{
"ID": "121",
"INDUSTRY": "Recreational"
},
{
"ID": "122",
"INDUSTRY": "Facilities and Services"
},
{
"ID": "123",
"INDUSTRY": "Religious Institutions"
},
{
"ID": "124",
"INDUSTRY": "Renewables and Environment"
},
{
"ID": "125",
"INDUSTRY": "Research"
},
{
"ID": "126",
"INDUSTRY": "Restaurants"
},
{
"ID": "127",
"INDUSTRY": "Retail"
},
{
"ID": "128",
"INDUSTRY": "Security and Investigations"
},
{
"ID": "129",
"INDUSTRY": "Semiconductors"
},
{
"ID": "130",
"INDUSTRY": "Shipbuilding"
},
{
"ID": "131",
"INDUSTRY": "Sporting Goods"
},
{
"ID": "132",
"INDUSTRY": "Sports"
},
{
"ID": "133",
"INDUSTRY": "Staffing and Recruiting"
},
{
"ID": "134",
"INDUSTRY": "Supermarkets"
},
{
"ID": "135",
"INDUSTRY": "Telecommunications"
},
{
"ID": "136",
"INDUSTRY": "Textiles"
},
{
"ID": "137",
"INDUSTRY": "Think Tanks"
},
{
"ID": "138",
"INDUSTRY": "Tobacco"
},
{
"ID": "139",
"INDUSTRY": "Translation and Localization"
},
{
"ID": "140",
"INDUSTRY": "Transportation Trucking Railroad"
},
{
"ID": "141",
"INDUSTRY": "Utilities"
},
{
"ID": "142",
"INDUSTRY": "Venture Capital"
},
{
"ID": "143",
"INDUSTRY": "Veterinary"
},
{
"ID": "144",
"INDUSTRY": "Warehousing"
},
{
"ID": "145",
"INDUSTRY": "Wholesale"
},
{
"ID": "146",
"INDUSTRY": "Wine and Spirits"
},
{
"ID": "147",
"INDUSTRY": "Wireless"
},
{
"ID": "148",
"INDUSTRY": "Writing and Editing"
},
{
"ID": "149",
"INDUSTRY": "Other"
}
]
